^C:\USERS\SPECT\SOURCE\REPOS\HOMEWORK17\HOMEWORK17\X64\DEBUG\HOMEWORK17.OBJ
C:\USERS\SPECT\SOURCE\REPOS\HOMEWORK17\X64\DEBUG\HOMEWORK17.EXE
C:\USERS\SPECT\SOURCE\REPOS\HOMEWORK17\HOMEWORK17\X64\DEBUG\HOMEWORK17.ILK
C:\USERS\SPECT\SOURCE\REPOS\HOMEWORK17\X64\DEBUG\HOMEWORK17.PDB
